<?xml version="1.0" encoding="iso-8859-1"?>
<!-- Generator: Adobe Illustrator 19.0.0, SVG Export Plug-In . SVG Version: 6.00 Build 0)  -->
<svg version="1.1" id="Layer_1" xmlns="http://www.w3.org/2000/svg" xmlns:xlink="http://www.w3.org/1999/xlink" x="0px" y="0px"
	 viewBox="0 0 512 512" style="enable-background:new 0 0 512 512;" xml:space="preserve">
<g>
	<path style="fill:#2BA5F7;" d="M471.843,192.837c0,11.959-0.979,23.705-2.849,35.137
		c-11.269,68.819-55.078,126.682-115.112,157.289l-98.719-192.427L471.843,192.837L471.843,192.837z"/>
	<path style="fill:#2BA5F7;" d="M220.863,192.837l-62.745,192.427C98.083,354.657,54.275,296.793,43.005,227.974
		c-1.87-11.432-2.849-23.178-2.849-35.137L220.863,192.837L220.863,192.837z"/>
</g>
<path style="fill:#F7B239;" d="M353.882,192.837H158.118v192.427c29.377,14.971,62.645,23.416,97.882,23.416
	c1.067,0,2.133-0.013,3.2-0.025c0.728-0.013,1.456-0.025,2.184-0.05c0.678-0.013,1.368-0.038,2.046-0.063
	c0.464,0,0.929-0.025,1.393-0.05c0.64-0.025,1.28-0.05,1.92-0.088c1.8-0.089,3.592-0.201,5.38-0.334
	c1.07-0.079,2.136-0.179,3.203-0.274c0.669-0.059,1.341-0.107,2.009-0.171c-0.013-0.001-0.026-0.003-0.039-0.004
	c27.349-2.669,53.199-10.441,76.588-22.359V192.837z"/>
<path style="fill:#2197D8;" d="M158.118,356.639v28.624C98.083,354.657,54.275,296.793,43.005,227.974
	c-1.87-11.432-2.849-23.178-2.849-35.137h42.667c0,11.959,0.979,23.705,2.849,35.137
	C94.055,279.162,120.445,324.301,158.118,356.639z"/>
<path style="fill:#E09B2D;" d="M277.333,407.626c-3.514,0.339-7.04,0.602-10.591,0.778c-0.64,0.038-1.28,0.063-1.92,0.088
	c-0.464,0.025-0.929,0.05-1.393,0.05c-0.678,0.025-1.368,0.05-2.045,0.063c-0.728,0.025-1.456,0.038-2.184,0.05
	c-1.067,0.013-2.133,0.025-3.2,0.025c-35.238,0-68.505-8.445-97.882-23.416v-28.624c12.976,11.156,27.294,20.794,42.667,28.624
	C224.163,397.173,250.002,404.941,277.333,407.626z"/>
<path style="fill:#4D4D4D;" d="M256,227.974c33.267,0,60.235,26.968,60.235,60.235S289.267,348.445,256,348.445
	s-60.235-26.968-60.235-60.235S222.733,227.974,256,227.974z"/>
<g>
	<path style="fill:#2197D8;" d="M40.157,192.837h117.961v35.137H43.005C41.136,216.542,40.157,204.796,40.157,192.837z"/>
	<path style="fill:#2197D8;" d="M471.843,192.837c0,11.959-0.979,23.705-2.849,35.137H353.882v-35.137H471.843z"/>
</g>
<rect x="158.118" y="192.841" style="fill:#E09B2D;" width="195.765" height="35.137"/>
<path style="fill:#666666;" d="M256,265.584c12.499,0,22.626,10.127,22.626,22.626S268.499,310.835,256,310.835
	s-22.638-10.127-22.638-22.626S243.501,265.584,256,265.584z"/>
<path style="fill:#333333;" d="M256,354.719c-36.675,0-66.51-29.837-66.51-66.51S219.325,221.7,256,221.7s66.51,29.837,66.51,66.51
	S292.675,354.719,256,354.719z M256,234.249c-29.754,0-53.961,24.207-53.961,53.961c0,29.754,24.207,53.961,53.961,53.961
	s53.961-24.207,53.961-53.961C309.961,258.456,285.754,234.249,256,234.249z"/>
<g>
	<circle style="fill:#FFFFFF;" cx="286.118" cy="263.454" r="9.412"/>
	<circle style="fill:#FFFFFF;" cx="229.647" cy="316.16" r="9.412"/>
</g>
<polygon style="fill:#F7B239;" points="494.431,103.32 512,198.692 471.843,198.692 353.882,198.692 158.118,198.692 
	40.157,198.692 0,198.692 17.569,103.32 "/>
<polygon style="fill:#E09B2D;" points="17.569,103.32 0,198.692 40.157,198.692 61.49,198.692 79.059,103.32 "/>
</svg>
